{
 "add_total_row": 1, 
 "apply_user_permissions": 1, 
 "creation": "2017-10-05 11:06:38.381653", 
 "disabled": 0, 
 "docstatus": 0, 
 "doctype": "Report", 
 "idx": 0, 
 "is_standard": "Yes", 
 "modified": "2017-10-05 11:06:38.381653", 
 "modified_by": "Administrator", 
 "module": "Nodux Sale One", 
 "name": "Ventas", 
 "owner": "Administrator", 
 "ref_doctype": "Sales Invoice One", 
 "report_name": "Ventas", 
 "report_type": "Script Report", 
 "roles": [
  {
   "role": "NODUX ONE"
  }
 ]
}