{
 "add_total_row": 0, 
 "apply_user_permissions": 1, 
 "creation": "2017-07-24 11:34:40.577936", 
 "disabled": 0, 
 "docstatus": 0, 
 "doctype": "Report", 
 "idx": 0, 
 "is_standard": "Yes", 
 "letter_head": "", 
 "modified": "2017-09-28 11:19:24.143115", 
 "modified_by": "Administrator", 
 "module": "Nodux Sale One", 
 "name": "Cierre de Caja", 
 "owner": "Administrator", 
 "ref_doctype": "Sales Invoice One", 
 "report_name": "Cierre de Caja", 
 "report_type": "Script Report", 
 "roles": [
  {
   "role": "NODUX ONE"
  }
 ]
}